1 10 20
10 2 20
37 41 110
1 2 2
55 150 122
524124 213543 470
321 352135 443
6845 635465 509
4654 23144 279
63545 100 340
10000 10 262
8989 8990 79
1500 1600 167
99999 999 351
651651 32154 509
321564 56321 443
2582 225252 386
222222 222223 117
44445 55554 340
66666 668789 509
478452 15672 449
999999 1 525
999999 1500 525
999999 165464 525
543185 564654 452
897872 21567 525
32172 587532 470
132487 789987 509
4654 879156 525
13247 132743 354
65476 1111 340
1111 1112 45
1112 1111 45
1111 5555 238
6666 7777 257
8888 10000 260
9999 10000 30
898989 989898 507
12324 456877 449
1 40000 324
2 65 113
7 555555 470
8 800 171
9 10 20
20 10000 262
20 999999 525
20 54 113
20 37 112
20 65464 340
20 19 21
