404834 467697 449
328858 744402 509
772887 249421 509
92601 89713 333
285759 355314 441
420404 962254 525
864227 959135 507
116368 942851 525
177337 70177 383
89190 850908 525
804613 752475 468
250424 677816 509
125008 653836 509
601419 964296 525
610282 817930 509
19653 568479 470
504455 109041 449
426305 588369 470
735666 94290 509
861339 80960 525
401940 236112 441
732808 631839 504
93748 118401 354
456578 162791 449
979411 493477 525
272348 337404 389
707253 769471 468
68449 425867 449
925744 435878 525
285568 531022 470
39989 403 324
144953 191382 383
325040 146860 443
125380 738858 509
869724 547563 525
354798 601293 470
562178 427626 470
108266 684361 509
29299 439227 449
707168 898137 525
885641 258274 525
430236 837915 525
495142 373230 449
976987 658844 525
910876 801345 525
384631 367146 423
486332 500510 426
805537 296523 509
509535 587225 470
704450 308812 509
965358 624880 525
382686 432441 449
414830 519701 470
207812 581531 470
212436 617944 470
30239 480691 449
704361 147189 509
101592 511024 449
960066 921871 507
19386 920765 525
176227 620547 470
136078 962699 525
793579 465075 509
167826 725495 509
370464 44870 443
574329 660834 509
712937 616960 509
131659 632439 509
986377 596881 525
401888 305354 441
271071 452799 449
344774 216816 443
259956 433324 449
413987 748919 509
295748 71036 443
424978 516854 470
598784 64193 470
141989 176333 383
292334 5543 443
893995 366424 525
924554 915112 445
345666 154625 443
359820 147691 443
344656 122781 443
302660 415689 449
12337 747884 509
610597 373570 470
73376 707370 509
843800 871896 419
367244 2534 443
630358 572224 509
480590 589236 470
33504 740740 509
448009 64085 449
508636 509961 377
972259 566692 525
220080 54048 386
737724 774029 468
733574 29711 509
493171 680229 509
831863 339096 509
784538 406896 509
64825 305712 443
72367 179614 383
94264 414531 449
717082 522149 509
481209 621992 470
618222 465268 470
462413 925454 525
362853 458642 449
772653 46558 509
969422 409208 525
37409 891305 525
596451 372528 470
914530 932929 476
469989 784043 509
291386 383164 441
309097 810068 509
955118 64740 525
811556 905087 525
215799 209133 373
529671 98421 470
997258 341505 525
144448 982869 525
682885 499198 509
490936 967681 525
884511 577407 525
298080 150528 443
292422 840489 525
766560 19263 509
522223 868750 525
338379 690756 509
711714 472476 509
333475 68742 443
541002 763936 509
764124 892650 525
662042 517458 509
647887 289547 509
20948 209819 383
811792 927965 525
99144 798267 509
445072 186535 449
441787 623176 470
726165 837728 468
442408 763813 509
644493 451814 509
987685 65436 525
783333 404798 509
751904 288104 509
570015 933795 525
584836 18337 470
